{
	"credit": "Made with Blockbench",
	"textures": {
		"0": "tardis:block/books",
		"particle": "tardis:block/books"
	},
	"elements": [
		{
			"from": [1.25, 3.75, 10.625],
			"to": [12.5, 4.5, 11],
			"rotation": {"angle": 45, "axis": "y", "origin": [8, 6, 5.75]},
			"faces": {
				"north": {"uv": [4, 11, 8, 13], "rotation": 270, "texture": "#0"},
				"east": {"uv": [4, 11, 8, 13], "rotation": 270, "texture": "#0"},
				"south": {"uv": [0, 7, 1, 14], "rotation": 270, "texture": "#0"},
				"west": {"uv": [4, 11, 8, 13], "rotation": 270, "texture": "#0"},
				"up": {"uv": [0, 7, 1, 8], "texture": "#0"},
				"down": {"uv": [0, 9, 1, 9.5], "texture": "#0"}
			}
		},
		{
			"from": [1.25, 4.5, 3.5],
			"to": [12.5, 4.875, 11],
			"rotation": {"angle": 45, "axis": "y", "origin": [8, 6, 5.75]},
			"faces": {
				"north": {"uv": [4, 11, 8, 13], "rotation": 270, "texture": "#0"},
				"east": {"uv": [4, 11, 8, 13], "rotation": 270, "texture": "#0"},
				"south": {"uv": [0, 7, 1, 14], "rotation": 270, "texture": "#0"},
				"west": {"uv": [4, 11, 8, 13], "rotation": 270, "texture": "#0"},
				"up": {"uv": [4, 11, 8, 13], "rotation": 270, "texture": "#0"},
				"down": {"uv": [4, 11, 8, 13], "rotation": 270, "texture": "#0"}
			}
		},
		{
			"from": [1.25, 3.375, 3.5],
			"to": [12.5, 3.75, 11],
			"rotation": {"angle": 45, "axis": "y", "origin": [8, 6, 5.75]},
			"faces": {
				"north": {"uv": [4, 11, 8, 13], "rotation": 270, "texture": "#0"},
				"east": {"uv": [4, 11, 8, 13], "rotation": 270, "texture": "#0"},
				"south": {"uv": [0, 7, 1, 14], "rotation": 270, "texture": "#0"},
				"west": {"uv": [4, 11, 8, 13], "rotation": 270, "texture": "#0"},
				"up": {"uv": [4, 11, 8, 13], "rotation": 270, "texture": "#0"},
				"down": {"uv": [4, 11, 8, 13], "rotation": 270, "texture": "#0"}
			}
		},
		{
			"from": [1.625, 3.75, 3.875],
			"to": [12.125, 4.5, 10.625],
			"rotation": {"angle": 45, "axis": "y", "origin": [8, 6, 5.75]},
			"faces": {
				"north": {"uv": [5, 0, 7, 7], "rotation": 270, "texture": "#0"},
				"east": {"uv": [5, 0, 7, 1], "rotation": 270, "texture": "#0"},
				"south": {"uv": [5, 1, 6, 2], "texture": "#0"},
				"west": {"uv": [5, 1, 7, 2], "rotation": 270, "texture": "#0"},
				"up": {"uv": [5, 3, 7, 4], "texture": "#0"},
				"down": {"uv": [5, 3, 7, 4], "texture": "#0"}
			}
		},
		{
			"from": [2.75, 2.25, 4.25],
			"to": [14, 3, 4.625],
			"rotation": {"angle": -22.5, "axis": "y", "origin": [8.75, 6, 7.25]},
			"faces": {
				"north": {"uv": [12, 7, 13, 14], "rotation": 270, "texture": "#0"},
				"east": {"uv": [12, 10, 14, 12], "rotation": 270, "texture": "#0"},
				"south": {"uv": [12, 10, 14, 12], "rotation": 270, "texture": "#0"},
				"west": {"uv": [12, 10, 14, 12], "rotation": 270, "texture": "#0"},
				"up": {"uv": [12, 7, 14, 7.5], "rotation": 180, "texture": "#0"},
				"down": {"uv": [12, 7, 14, 7.5], "rotation": 180, "texture": "#0"}
			}
		},
		{
			"from": [2.75, 3, 4.25],
			"to": [14, 3.375, 11.75],
			"rotation": {"angle": -22.5, "axis": "y", "origin": [8.75, 6, 7.25]},
			"faces": {
				"north": {"uv": [12, 7, 13, 14], "rotation": 270, "texture": "#0"},
				"east": {"uv": [12, 10, 14, 12], "rotation": 270, "texture": "#0"},
				"south": {"uv": [12, 10, 14, 12], "rotation": 270, "texture": "#0"},
				"west": {"uv": [12, 10, 14, 12], "rotation": 270, "texture": "#0"},
				"up": {"uv": [12, 10, 14, 12], "rotation": 90, "texture": "#0"},
				"down": {"uv": [12, 7, 14, 7.5], "rotation": 90, "texture": "#0"}
			}
		},
		{
			"from": [2.75, 1.875, 4.25],
			"to": [14, 2.25, 11.75],
			"rotation": {"angle": -22.5, "axis": "y", "origin": [8.75, 6, 7.25]},
			"faces": {
				"north": {"uv": [12, 7, 13, 14], "rotation": 270, "texture": "#0"},
				"east": {"uv": [12, 10, 14, 12], "rotation": 270, "texture": "#0"},
				"south": {"uv": [12, 10, 14, 12], "rotation": 270, "texture": "#0"},
				"west": {"uv": [12, 10, 14, 12], "rotation": 270, "texture": "#0"},
				"up": {"uv": [12, 10, 14, 12], "rotation": 90, "texture": "#0"},
				"down": {"uv": [5, 3, 7, 3.5], "rotation": 90, "texture": "#0"}
			}
		},
		{
			"from": [3.125, 2.25, 4.625],
			"to": [13.625, 3, 11.375],
			"rotation": {"angle": -22.5, "axis": "y", "origin": [8.75, 6, 7.25]},
			"faces": {
				"north": {"uv": [5, 0, 7, 1], "texture": "#0"},
				"east": {"uv": [5, 0, 7, 1], "rotation": 270, "texture": "#0"},
				"south": {"uv": [5, 0, 7, 7], "rotation": 270, "texture": "#0"},
				"west": {"uv": [5, 1, 7, 2], "rotation": 270, "texture": "#0"},
				"up": {"uv": [5, 1, 7, 2], "rotation": 180, "texture": "#0"},
				"down": {"uv": [5, 3, 7, 3.5], "rotation": 180, "texture": "#0"}
			}
		},
		{
			"from": [2, 0.375, 2],
			"to": [2.375, 1.5, 13.25],
			"rotation": {"angle": 45, "axis": "y", "origin": [8, 6, 5.75]},
			"faces": {
				"north": {"uv": [15, 11, 16, 16], "rotation": 90, "texture": "#0"},
				"east": {"uv": [15, 11, 16, 16], "rotation": 90, "texture": "#0"},
				"south": {"uv": [15, 11, 16, 16], "rotation": 90, "texture": "#0"},
				"west": {"uv": [14, 7, 15, 14], "rotation": 270, "texture": "#0"},
				"up": {"uv": [14, 7, 16, 7.5], "rotation": 90, "texture": "#0"},
				"down": {"uv": [14, 7, 16, 7.5], "rotation": 270, "texture": "#0"}
			}
		},
		{
			"from": [2, 1.5, 2],
			"to": [9.5, 1.875, 13.25],
			"rotation": {"angle": 45, "axis": "y", "origin": [8, 6, 5.75]},
			"faces": {
				"north": {"uv": [15, 11, 16, 16], "rotation": 90, "texture": "#0"},
				"east": {"uv": [15, 11, 16, 16], "rotation": 90, "texture": "#0"},
				"south": {"uv": [15, 11, 16, 16], "rotation": 90, "texture": "#0"},
				"west": {"uv": [14, 7, 15, 14], "rotation": 270, "texture": "#0"},
				"up": {"uv": [15, 11, 16, 16], "rotation": 90, "texture": "#0"},
				"down": {"uv": [15, 11, 16, 16], "rotation": 90, "texture": "#0"}
			}
		},
		{
			"from": [2, 0, 2],
			"to": [9.5, 0.375, 13.25],
			"rotation": {"angle": 45, "axis": "y", "origin": [8, 6, 5.75]},
			"faces": {
				"north": {"uv": [15, 11, 16, 16], "rotation": 90, "texture": "#0"},
				"east": {"uv": [15, 11, 16, 16], "rotation": 90, "texture": "#0"},
				"south": {"uv": [15, 11, 16, 16], "rotation": 90, "texture": "#0"},
				"west": {"uv": [14, 7, 15, 14], "rotation": 270, "texture": "#0"},
				"up": {"uv": [15, 11, 16, 16], "rotation": 90, "texture": "#0"},
				"down": {"uv": [15, 11, 16, 16], "rotation": 90, "texture": "#0"}
			}
		},
		{
			"from": [2.375, 0.375, 2.375],
			"to": [9.125, 1.5, 12.875],
			"rotation": {"angle": 45, "axis": "y", "origin": [8, 6, 5.75]},
			"faces": {
				"north": {"uv": [5, 1, 7, 2], "rotation": 270, "texture": "#0"},
				"east": {"uv": [5, 0, 7, 7], "rotation": 270, "texture": "#0"},
				"south": {"uv": [5, 0, 7, 1], "rotation": 270, "texture": "#0"},
				"west": {"uv": [5, 0, 7, 1], "texture": "#0"},
				"up": {"uv": [5, 1, 7, 2], "rotation": 90, "texture": "#0"},
				"down": {"uv": [5, 1, 7, 2], "rotation": 270, "texture": "#0"}
			}
		}
	],
	"display": {
		"thirdperson_righthand": {
			"rotation": [66, -18, 0],
			"translation": [0, 0, 2.5],
			"scale": [0.5, 0.5, 0.5]
		},
		"thirdperson_lefthand": {
			"rotation": [66, -18, 0],
			"translation": [0, 0, 2.5],
			"scale": [0.5, 0.5, 0.5]
		},
		"firstperson_righthand": {
			"translation": [0, 5, 2.75],
			"scale": [0.5, 0.5, 0.5]
		},
		"firstperson_lefthand": {
			"rotation": [0, -106, 0],
			"translation": [0, 5, 1.75],
			"scale": [0.5, 0.5, 0.5]
		},
		"ground": {
			"translation": [0, 0.5, 0],
			"scale": [0.5, 0.5, 0.5]
		},
		"gui": {
			"rotation": [15, -1, 0],
			"translation": [0, 2.75, 0],
			"scale": [0.8, 0.8, 0.8]
		}
	},
	"groups": [
		{
			"name": "group",
			"origin": [8, 8, 8],
			"children": [0, 1, 2, 3]
		},
		{
			"name": "group3",
			"origin": [8, 8, 8],
			"children": [4, 5, 6, 7]
		},
		{
			"name": "group2",
			"origin": [8, 8, 8],
			"children": [8, 9, 10, 11]
		}
	]
}