{
	"parent":"block/cube_bottom_top",
	"textures":{
		"top":"tardis:block/technology/landing_pad",
		"side":"tardis:block/technology/airlock_bottom",
		"bottom":"tardis:block/technology/tech_floor_plate"
	}
}