{
	"credit": "Made with Blockbench",
	"texture_size": [32, 32],
	"textures": {
		"0": "tardis:item/sheild_generator",
		"particle": "tardis:item/sheild_generator"
	},
	"elements": [
		{
			"from": [10, 0, 8],
			"to": [11, 2, 14],
			"faces": {
				"north": {"uv": [6, 5, 6.5, 6], "texture": "#0"},
				"east": {"uv": [2, 0, 5, 1], "texture": "#0"},
				"south": {"uv": [11, 5.5, 11.5, 6.5], "texture": "#0"},
				"west": {"uv": [2, 1, 5, 2], "texture": "#0"},
				"up": {"uv": [8.5, 8, 8, 5], "texture": "#0"},
				"down": {"uv": [0.5, 8.5, 0, 11.5], "texture": "#0"}
			}
		},
		{
			"from": [6, 0.25, 5],
			"to": [10, 1.75, 11],
			"faces": {
				"north": {"uv": [4.5, 7.5, 6.5, 8.5], "texture": "#0"},
				"east": {"uv": [5, 1, 8, 2], "texture": "#0"},
				"south": {"uv": [6.5, 8, 8.5, 9], "texture": "#0"},
				"west": {"uv": [0, 6, 3, 7], "texture": "#0"},
				"up": {"uv": [2, 3, 0, 0], "texture": "#0"},
				"down": {"uv": [4, 2, 2, 5], "texture": "#0"}
			}
		},
		{
			"from": [6, 0.4375, 11],
			"to": [10, 1.5625, 13.5],
			"faces": {
				"north": {"uv": [0, 4.5, 2, 5], "texture": "#0"},
				"east": {"uv": [11, 4.5, 12.5, 5], "texture": "#0"},
				"south": {"uv": [7.5, 10.5, 9.5, 11], "texture": "#0"},
				"west": {"uv": [11, 5, 12.5, 5.5], "texture": "#0"},
				"up": {"uv": [2, 4.5, 0, 3], "texture": "#0"},
				"down": {"uv": [5, 6, 3, 7.5], "texture": "#0"}
			}
		},
		{
			"from": [5, 0, 8],
			"to": [6, 2, 14],
			"faces": {
				"north": {"uv": [11, 6.5, 11.5, 7.5], "texture": "#0"},
				"east": {"uv": [3, 5, 6, 6], "texture": "#0"},
				"south": {"uv": [11, 7.5, 11.5, 8.5], "texture": "#0"},
				"west": {"uv": [5, 0, 8, 1], "texture": "#0"},
				"up": {"uv": [6.5, 11.5, 6, 8.5], "texture": "#0"},
				"down": {"uv": [4, 9, 3.5, 12], "texture": "#0"}
			}
		},
		{
			"from": [6.89949, 0, 3.82843],
			"to": [9.89949, 2, 6.82843],
			"rotation": {"angle": 45, "axis": "y", "origin": [6.36396, 8, 9.12132]},
			"faces": {
				"north": {"uv": [8.5, 8.5, 10, 9.5], "texture": "#0"},
				"east": {"uv": [8.5, 2, 10, 3], "texture": "#0"},
				"south": {"uv": [8.5, 3, 10, 4], "texture": "#0"},
				"west": {"uv": [8.5, 4, 10, 5], "texture": "#0"},
				"up": {"uv": [8, 6.5, 6.5, 5], "texture": "#0"},
				"down": {"uv": [1.5, 7, 0, 8.5], "texture": "#0"}
			}
		},
		{
			"from": [6.10051, 0, 3.82843],
			"to": [9.10051, 2, 6.82843],
			"rotation": {"angle": -45, "axis": "y", "origin": [9.63604, 8, 9.12132]},
			"faces": {
				"north": {"uv": [8.5, 5, 10, 6], "texture": "#0"},
				"east": {"uv": [8.5, 6, 10, 7], "texture": "#0"},
				"south": {"uv": [8.5, 7, 10, 8], "texture": "#0"},
				"west": {"uv": [2, 9, 3.5, 10], "texture": "#0"},
				"up": {"uv": [3, 8.5, 1.5, 7], "texture": "#0"},
				"down": {"uv": [8.5, 2, 7, 3.5], "texture": "#0"}
			}
		},
		{
			"from": [3, 0, 5],
			"to": [6, 2, 8],
			"faces": {
				"north": {"uv": [8, 0, 9.5, 1], "texture": "#0"},
				"east": {"uv": [8, 1, 9.5, 2], "texture": "#0"},
				"south": {"uv": [0.5, 8.5, 2, 9.5], "texture": "#0"},
				"west": {"uv": [4.5, 8.5, 6, 9.5], "texture": "#0"},
				"up": {"uv": [6.5, 7.5, 5, 6], "texture": "#0"},
				"down": {"uv": [8, 6.5, 6.5, 8], "texture": "#0"}
			}
		},
		{
			"from": [10, 0, 5],
			"to": [13, 2, 8],
			"faces": {
				"north": {"uv": [6.5, 9, 8, 10], "texture": "#0"},
				"east": {"uv": [0.5, 9.5, 2, 10.5], "texture": "#0"},
				"south": {"uv": [4, 9.5, 5.5, 10.5], "texture": "#0"},
				"west": {"uv": [8, 9.5, 9.5, 10.5], "texture": "#0"},
				"up": {"uv": [8.5, 5, 7, 3.5], "texture": "#0"},
				"down": {"uv": [4.5, 7.5, 3, 9], "texture": "#0"}
			}
		},
		{
			"from": [5.12868, 0, 2.87868],
			"to": [10.87868, 2, 5.12868],
			"rotation": {"angle": 0, "axis": "y", "origin": [8.87868, 8, 8.87868]},
			"faces": {
				"north": {"uv": [4, 4, 7, 5], "texture": "#0"},
				"east": {"uv": [10, 7.5, 11, 8.5], "texture": "#0"},
				"south": {"uv": [4, 2, 7, 3], "texture": "#0"},
				"west": {"uv": [10, 8.5, 11, 9.5], "texture": "#0"},
				"up": {"uv": [7, 4, 4, 3], "texture": "#0"},
				"down": {"uv": [3, 5, 0, 6], "texture": "#0"}
			}
		},
		{
			"from": [7.45558, -0.25, 7.19302],
			"to": [9.20558, 2.25, 8.94302],
			"rotation": {"angle": 45, "axis": "y", "origin": [6.58058, 1, 7.81802]},
			"faces": {
				"north": {"uv": [9.5, 9.5, 10.5, 11], "texture": "#0"},
				"east": {"uv": [9.5, 0, 10.5, 1.5], "texture": "#0"},
				"south": {"uv": [2, 10, 3, 11.5], "texture": "#0"},
				"west": {"uv": [6.5, 10, 7.5, 11.5], "texture": "#0"},
				"up": {"uv": [1.5, 11.5, 0.5, 10.5], "texture": "#0"},
				"down": {"uv": [5, 10.5, 4, 11.5], "texture": "#0"}
			}
		},
		{
			"from": [11.5, 0.5, 8],
			"to": [12.5, 1.5, 11],
			"faces": {
				"north": {"uv": [2.5, 8.5, 2, 9], "texture": "#0"},
				"east": {"uv": [9, 11, 7.5, 11.5], "texture": "#0"},
				"south": {"uv": [3, 8.5, 2.5, 9], "texture": "#0"},
				"west": {"uv": [10, 8, 8.5, 8.5], "texture": "#0"},
				"up": {"uv": [1.5, 12, 2, 10.5], "texture": "#0"},
				"down": {"uv": [5, 10.5, 5.5, 12], "texture": "#0"}
			}
		},
		{
			"from": [12.81802, 0.5, 7.81802],
			"to": [13.81802, 1.5, 10.81802],
			"rotation": {"angle": -45, "axis": "y", "origin": [9.31802, 8, 7.81802]},
			"faces": {
				"north": {"uv": [4.5, 9, 4, 9.5], "texture": "#0"},
				"east": {"uv": [12, 11, 10.5, 11.5], "texture": "#0"},
				"south": {"uv": [8.5, 9, 8, 9.5], "texture": "#0"},
				"west": {"uv": [10.5, 11, 9, 11.5], "texture": "#0"},
				"up": {"uv": [11, 3, 11.5, 1.5], "texture": "#0"},
				"down": {"uv": [11, 3, 11.5, 4.5], "texture": "#0"}
			}
		},
		{
			"from": [3.5, 0.5, 8],
			"to": [4.5, 1.5, 11],
			"faces": {
				"north": {"uv": [2, 8.5, 2.5, 9], "texture": "#0"},
				"east": {"uv": [8.5, 8, 10, 8.5], "texture": "#0"},
				"south": {"uv": [2.5, 8.5, 3, 9], "texture": "#0"},
				"west": {"uv": [7.5, 11, 9, 11.5], "texture": "#0"},
				"up": {"uv": [2, 12, 1.5, 10.5], "texture": "#0"},
				"down": {"uv": [5.5, 10.5, 5, 12], "texture": "#0"}
			}
		},
		{
			"from": [2.18198, 0.5, 7.81802],
			"to": [3.18198, 1.5, 10.81802],
			"rotation": {"angle": 45, "axis": "y", "origin": [6.68198, 8, 7.81802]},
			"faces": {
				"north": {"uv": [4, 9, 4.5, 9.5], "texture": "#0"},
				"east": {"uv": [9, 11, 10.5, 11.5], "texture": "#0"},
				"south": {"uv": [8, 9, 8.5, 9.5], "texture": "#0"},
				"west": {"uv": [10.5, 11, 12, 11.5], "texture": "#0"},
				"up": {"uv": [11.5, 3, 11, 1.5], "texture": "#0"},
				"down": {"uv": [11.5, 3, 11, 4.5], "texture": "#0"}
			}
		},
		{
			"from": [7.12868, -0.25, 2.62868],
			"to": [8.87868, 2.25, 4.12868],
			"rotation": {"angle": 0, "axis": "y", "origin": [8.87868, 8, 8.87868]},
			"faces": {
				"north": {"uv": [10, 1.5, 11, 3], "texture": "#0"},
				"east": {"uv": [10, 3, 11, 4.5], "texture": "#0"},
				"south": {"uv": [10, 4.5, 11, 6], "texture": "#0"},
				"west": {"uv": [10, 6, 11, 7.5], "texture": "#0"},
				"up": {"uv": [11.5, 1.5, 10.5, 0.5], "texture": "#0"},
				"down": {"uv": [11.5, 9.5, 10.5, 10.5], "texture": "#0"}
			}
		},
		{
			"from": [6.62868, -0.25, 3.00368],
			"to": [8.37868, 2.25, 4.50368],
			"rotation": {"angle": -45, "axis": "y", "origin": [8.87868, 8, 8.87868]},
			"faces": {
				"north": {"uv": [10, 1.5, 11, 3], "texture": "#0"},
				"east": {"uv": [10, 3, 11, 4.5], "texture": "#0"},
				"south": {"uv": [10, 4.5, 11, 6], "texture": "#0"},
				"west": {"uv": [10, 6, 11, 7.5], "texture": "#0"},
				"up": {"uv": [11.5, 1.5, 10.5, 0.5], "texture": "#0"},
				"down": {"uv": [11.5, 9.5, 10.5, 10.5], "texture": "#0"}
			}
		},
		{
			"from": [8.12868, -0.25, 1.75368],
			"to": [9.87868, 2.25, 3.25368],
			"rotation": {"angle": 45, "axis": "y", "origin": [8.87868, 8, 8.87868]},
			"faces": {
				"north": {"uv": [10, 4.5, 11, 6], "texture": "#0"},
				"east": {"uv": [10, 6, 11, 7.5], "texture": "#0"},
				"south": {"uv": [10, 1.5, 11, 3], "texture": "#0"},
				"west": {"uv": [10, 3, 11, 4.5], "texture": "#0"},
				"up": {"uv": [11.5, 1.5, 10.5, 0.5], "rotation": 180, "texture": "#0"},
				"down": {"uv": [11.5, 9.5, 10.5, 10.5], "rotation": 180, "texture": "#0"}
			}
		},
		{
			"from": [2.75368, -0.25, 5.75368],
			"to": [4.25368, 2.25, 7.50368],
			"rotation": {"angle": 0, "axis": "y", "origin": [8.00368, 1, 3.37868]},
			"faces": {
				"north": {"uv": [10, 3, 11, 4.5], "texture": "#0"},
				"east": {"uv": [10, 4.5, 11, 6], "texture": "#0"},
				"south": {"uv": [10, 6, 11, 7.5], "texture": "#0"},
				"west": {"uv": [10, 1.5, 11, 3], "texture": "#0"},
				"up": {"uv": [11.5, 1.5, 10.5, 0.5], "rotation": 270, "texture": "#0"},
				"down": {"uv": [11.5, 9.5, 10.5, 10.5], "rotation": 90, "texture": "#0"}
			}
		},
		{
			"from": [11.75368, -0.25, 5.75368],
			"to": [13.25368, 2.25, 7.50368],
			"rotation": {"angle": 0, "axis": "y", "origin": [8.00368, 1, 3.37868]},
			"faces": {
				"north": {"uv": [10, 3, 11, 4.5], "texture": "#0"},
				"east": {"uv": [10, 4.5, 11, 6], "texture": "#0"},
				"south": {"uv": [10, 6, 11, 7.5], "texture": "#0"},
				"west": {"uv": [10, 1.5, 11, 3], "texture": "#0"},
				"up": {"uv": [11.5, 1.5, 10.5, 0.5], "rotation": 270, "texture": "#0"},
				"down": {"uv": [11.5, 9.5, 10.5, 10.5], "rotation": 90, "texture": "#0"}
			}
		},
		{
			"from": [6.5, 0.3125, 11],
			"to": [7, 1.6875, 14.5],
			"faces": {
				"north": {"uv": [9.5, 1.5, 10, 2], "texture": "#0"},
				"east": {"uv": [10.5, 10.5, 12.5, 11], "texture": "#0"},
				"south": {"uv": [7.5, 10, 8, 10.5], "texture": "#0"},
				"west": {"uv": [10.5, 0, 12.5, 0.5], "texture": "#0"},
				"up": {"uv": [6, 11.5, 5.5, 9.5], "texture": "#0"},
				"down": {"uv": [3.5, 10, 3, 12], "texture": "#0"}
			}
		},
		{
			"from": [9, 0.3125, 11],
			"to": [9.5, 1.6875, 14.5],
			"faces": {
				"north": {"uv": [9.5, 1.5, 10, 2], "texture": "#0"},
				"east": {"uv": [10.5, 10.5, 12.5, 11], "texture": "#0"},
				"south": {"uv": [7.5, 10, 8, 10.5], "texture": "#0"},
				"west": {"uv": [10.5, 0, 12.5, 0.5], "texture": "#0"},
				"up": {"uv": [6, 11.5, 5.5, 9.5], "texture": "#0"},
				"down": {"uv": [3.5, 10, 3, 12], "texture": "#0"}
			}
		},
		{
			"from": [7.75, 0.3125, 11],
			"to": [8.25, 1.6875, 14.5],
			"faces": {
				"north": {"uv": [9.5, 1.5, 10, 2], "texture": "#0"},
				"east": {"uv": [10.5, 10.5, 12.5, 11], "texture": "#0"},
				"south": {"uv": [7.5, 10, 8, 10.5], "texture": "#0"},
				"west": {"uv": [10.5, 0, 12.5, 0.5], "texture": "#0"},
				"up": {"uv": [6, 11.5, 5.5, 9.5], "texture": "#0"},
				"down": {"uv": [3.5, 10, 3, 12], "texture": "#0"}
			}
		}
	],
	"display": {
		"thirdperson_righthand": {
			"rotation": [45, 0, 50],
			"translation": [-2, 3, 0],
			"scale": [0.5, 0.5, 0.5]
		},
		"thirdperson_lefthand": {
			"rotation": [45, 0, 50],
			"translation": [-2, 3, 0],
			"scale": [0.5, 0.5, 0.5]
		},
		"firstperson_righthand": {
			"rotation": [60, 0, 60],
			"translation": [-3, 3, 0],
			"scale": [0.8, 0.8, 0.8]
		},
		"firstperson_lefthand": {
			"rotation": [60, 0, 60],
			"translation": [-3, 3, 0],
			"scale": [0.8, 0.8, 0.8]
		},
		"ground": {
			"translation": [0, 4.25, 0],
			"scale": [0.5, 0.5, 0.5]
		},
		"gui": {
			"rotation": [90, -17, 39],
			"translation": [-5.5, 2.5, 0],
			"scale": [1.3, 1.3, 1.3]
		},
		"head": {
			"rotation": [90, 0, 0],
			"translation": [0, -13.75, 11.5]
		},
		"fixed": {
			"rotation": [90, 0, 0],
			"translation": [0, 0.75, 10.25],
			"scale": [1.6, 1.6, 1.6]
		}
	},
	"groups": [0, 1, 2, 3, 4, 5, 6, 7, 8, 9,
		{
			"name": "group",
			"origin": [8, 8, 8],
			"color": 0,
			"children": []
		},
		{
			"name": "group",
			"origin": [8, 8, 8],
			"color": 0,
			"children": [10, 11, 12, 13]
		},
		{
			"name": "group",
			"origin": [8.87868, 8, 8.87868],
			"color": 0,
			"children": [14, 15, 16, 17, 18]
		},
		{
			"name": "group",
			"origin": [8, 8, 8],
			"color": 0,
			"children": [19, 20, 21]
		}
	]
}